// Jest Snapshot v1, https://goo.gl/fbAQLP

exports[`AboutModal Component should contain brand: brand 1`] = `
<AboutModal
  altLogo="RH CM"
  className=""
  logo="logo-brand.svg"
  onHide={[Function]}
  productTitle={
    <img
      alt="Red Hat Cloud Meter"
      src="title-brand.svg"
    />
  }
  show={true}
  trademarkText="Copyright (c) 2018 Red Hat Inc."
>
  <div
    aria-label="Application information copied"
    aria-live="polite"
    tabIndex={-1}
  >
    <AboutModalVersions
      className="cloudmeter-about-modal-list"
    >
      <AboutModalVersionItem
        className=""
        label="Username"
        versionText=""
      />
      <AboutModalVersionItem
        className=""
        label="UI Version"
        versionText="XXX-frontigrade-version - 0000000000000000000000000000000000000000"
      />
    </AboutModalVersions>
  </div>
  <div
    className="cloudmeter-about-modal-copy-footer"
  >
    <Button
      active={false}
      block={false}
      bsClass="btn"
      bsStyle="default"
      className="cloudmeter-about-modal-copy-button"
      disabled={false}
      onClick={[Function]}
      title="Copy application information"
    >
      <Icon
        name="paste"
        type="fa"
      />
    </Button>
  </div>
</AboutModal>
`;

exports[`AboutModal Component should render a connected component with default props: connected 1`] = `
<AboutModal
  apiVersion={null}
  brand={false}
  getSystemConfig={[Function]}
  onClose={null}
  resetTimer={3000}
  session={
    Object {
      "username": "test",
    }
  }
  show={true}
  uiVersion="XXX-frontigrade-version - 0000000000000000000000000000000000000000"
/>
`;

exports[`AboutModal Component should render a non-connected component: hidden modal 1`] = `
<AboutModal
  apiVersion={null}
  brand={false}
  getSystemConfig={[Function]}
  onClose={null}
  resetTimer={3000}
  session={
    Object {
      "username": null,
    }
  }
  show={false}
  uiVersion="XXX-frontigrade-version - 0000000000000000000000000000000000000000"
  user={
    Object {
      "session": Object {
        "username": "test",
      },
    }
  }
>
  <AboutModal
    altLogo="CM"
    className=""
    logo="logo.svg"
    onHide={[Function]}
    productTitle={
      <img
        alt="Cloud Meter"
        src="title.svg"
      />
    }
    show={false}
    trademarkText=""
  >
    <Modal
      animation={true}
      autoFocus={true}
      backdrop={true}
      bsClass="modal"
      className=""
      contentClassName="about-modal-pf"
      dialogComponentClass={[Function]}
      enforceFocus={true}
      keyboard={true}
      manager={
        ModalManager {
          "add": [Function],
          "containers": Array [],
          "data": Array [],
          "handleContainerOverflow": true,
          "hideSiblingNodes": true,
          "isTopModal": [Function],
          "modals": Array [],
          "remove": [Function],
        }
      }
      onHide={[Function]}
      renderBackdrop={[Function]}
      restoreFocus={true}
      show={false}
    >
      <Modal
        autoFocus={true}
        backdrop={true}
        backdropClassName="modal-backdrop"
        backdropTransition={[Function]}
        containerClassName="modal-open"
        enforceFocus={true}
        keyboard={true}
        manager={
          ModalManager {
            "add": [Function],
            "containers": Array [],
            "data": Array [],
            "handleContainerOverflow": true,
            "hideSiblingNodes": true,
            "isTopModal": [Function],
            "modals": Array [],
            "remove": [Function],
          }
        }
        onEntering={[Function]}
        onExited={[Function]}
        onHide={[Function]}
        renderBackdrop={[Function]}
        restoreFocus={true}
        show={false}
        transition={[Function]}
      />
    </Modal>
  </AboutModal>
</AboutModal>
`;

exports[`AboutModal Component should render a non-connected component: show modal 1`] = `
<AboutModal
  apiVersion={null}
  brand={false}
  getSystemConfig={[Function]}
  onClose={null}
  resetTimer={3000}
  session={
    Object {
      "username": null,
    }
  }
  show={false}
  uiVersion="XXX-frontigrade-version - 0000000000000000000000000000000000000000"
  user={
    Object {
      "session": Object {
        "username": "test",
      },
    }
  }
>
  <AboutModal
    altLogo="CM"
    className=""
    logo="logo.svg"
    onHide={[Function]}
    productTitle={
      <img
        alt="Cloud Meter"
        src="title.svg"
      />
    }
    show={false}
    trademarkText=""
  >
    <Modal
      animation={true}
      autoFocus={true}
      backdrop={true}
      bsClass="modal"
      className=""
      contentClassName="about-modal-pf"
      dialogComponentClass={[Function]}
      enforceFocus={true}
      keyboard={true}
      manager={
        ModalManager {
          "add": [Function],
          "containers": Array [],
          "data": Array [],
          "handleContainerOverflow": true,
          "hideSiblingNodes": true,
          "isTopModal": [Function],
          "modals": Array [],
          "remove": [Function],
        }
      }
      onHide={[Function]}
      renderBackdrop={[Function]}
      restoreFocus={true}
      show={false}
    >
      <Modal
        autoFocus={true}
        backdrop={true}
        backdropClassName="modal-backdrop"
        backdropTransition={[Function]}
        containerClassName="modal-open"
        enforceFocus={true}
        keyboard={true}
        manager={
          ModalManager {
            "add": [Function],
            "containers": Array [],
            "data": Array [],
            "handleContainerOverflow": true,
            "hideSiblingNodes": true,
            "isTopModal": [Function],
            "modals": Array [],
            "remove": [Function],
          }
        }
        onEntering={[Function]}
        onExited={[Function]}
        onHide={[Function]}
        renderBackdrop={[Function]}
        restoreFocus={true}
        show={false}
        transition={[Function]}
      />
    </Modal>
  </AboutModal>
</AboutModal>
`;
